# Blender v2.79 (sub 0) OBJ File: ''
# www.blender.org
mtllib uang.mtl
o Cube
v -0.872612 0.107625 1.994773
v 1.026844 -0.462319 1.866549
v 0.950626 0.143759 -1.956475
v -0.948829 0.713704 -1.828250
v -0.950626 -0.143759 1.956476
v 0.948829 -0.713704 1.828250
v 0.872612 -0.107625 -1.994773
v -1.026843 0.462319 -1.866549
vt 0.997753 0.990107
vt 0.996648 0.007373
vt 0.003856 0.004651
vt 0.004734 0.993349
vt 0.992592 0.982748
vt 0.003669 0.997349
vt 0.003668 0.006651
vt 0.995376 0.010902
vt 0.514919 0.000000
vt 0.514919 1.000000
vt 0.462977 1.000000
vt 0.462977 0.000000
vt 0.455103 0.000000
vt 0.455103 1.000000
vt 0.376475 1.000000
vt 0.374354 0.000000
vt 0.471818 0.000000
vt 0.471818 1.000000
vt 0.506078 1.000000
vt 0.506078 0.000000
vt 0.455104 1.000000
vt 0.455103 0.000000
vt 0.376476 0.000000
vt 0.374354 1.000000
vn 0.2933 0.9451 0.1440
vn -0.2933 -0.9451 -0.1440
vn 0.0197 -0.1565 0.9875
vn 0.9558 -0.2868 -0.0645
vn -0.0197 0.1566 -0.9875
vn -0.9558 0.2868 0.0645
usemtl Material
s off
f 1/1/1 2/2/1 3/3/1 4/4/1
f 5/5/2 8/6/2 7/7/2 6/8/2
f 1/9/3 5/10/3 6/11/3 2/12/3
f 2/13/4 6/14/4 7/15/4 3/16/4
f 3/17/5 7/18/5 8/19/5 4/20/5
f 5/21/6 1/22/6 4/23/6 8/24/6
